<svg xmlns="http://www.w3.org/2000/svg" viewBox="0 0 311.81 311.81">
    <title>brand-logo</title>
    <circle fill="#E60000" stroke="none" cx="155.91" cy="155.91" r="155.91"/>
    <path stroke="none" fill="#ffffff" d="M157.13,242.31c-42.57.14-86.87-36.19-87.06-94.54C69.95,109.18,90.76,72,117.37,50c26-21.49,61.51-35.28,93.76-35.39,4.15,0,8.49.33,11.15,1.23-28.2,5.85-50.64,32.09-50.54,61.86a16.16,16.16,0,0,0,.19,2.52c47.18,11.49,68.6,40,68.73,79.35S209.69,242.13,157.13,242.31Z"/>
</svg>
